[gd_scene load_steps=2 format=3 uid="uid://7hshw7lkaf2p"]

[ext_resource type="Script" path="res://Assets/Menu/MenuColor.gd" id="1_unj4b"]

[node name="MenuColor" type="ColorPickerButton"]
anchor_right = 1.0
anchor_bottom = 1.0
offset_left = 4.0
offset_top = 4.0
offset_right = 4.0
offset_bottom = 4.0
edit_alpha = false
script = ExtResource( "1_unj4b" )
__meta__ = {
"_edit_use_anchors_": false
}
label = "Player Color"
var_name = "player_color"

[connection signal="color_changed" from="." to="." method="_on_menu_color_color_changed"]
