[gd_scene load_steps=5 format=3 uid="uid://ce0yimc2gxtg7"]

[ext_resource type="PackedScene" uid="uid://ph5l7k11riw" path="res://Assets/Menu/Menu.tscn" id="1_ia3nn"]
[ext_resource type="Script" path="res://Assets/Menu/ProfileMenu.gd" id="2_wpdy1"]
[ext_resource type="PackedScene" uid="uid://doh20jh5j5116" path="res://Assets/Menu/MenuLineEdit.tscn" id="3_cinof"]
[ext_resource type="PackedScene" uid="uid://7hshw7lkaf2p" path="res://Assets/Menu/MenuColor.tscn" id="4_lmkcm"]

[node name="ProfileMenu" instance=ExtResource( "1_ia3nn" )]
script = ExtResource( "2_wpdy1" )

[node name="UsernameLineEdit" parent="." index="0" instance=ExtResource( "3_cinof" )]
anchor_right = 0.0
anchor_bottom = 0.0
offset_right = 250.0
offset_bottom = 33.0
label = "Player Name"
var_name = "player_name"

[node name="PlayerColor" parent="." index="1" instance=ExtResource( "4_lmkcm" )]
anchor_right = 0.0
anchor_bottom = 0.0
offset_left = 0.0
offset_top = 37.0
offset_right = 250.0
offset_bottom = 66.0
label = "player color"

[node name="Back" parent="." index="2"]
offset_top = 70.0
offset_bottom = 99.0

[connection signal="data_changed" from="UsernameLineEdit" to="." method="change_player_name"]
[connection signal="data_changed" from="PlayerColor" to="." method="change_player_color"]
