[gd_resource type="StandardMaterial3D" load_steps=2 format=3 uid="uid://dkjl1nltj2lms"]

[ext_resource type="Script" path="res://Assets/Materials/ExtendedMaterials/ExtendedMaterial.gd" id="1_ooagg"]

[resource]
script = ExtResource( "1_ooagg" )
